Person 1,Relation,Person 2,Gender
Elizabeth II,Spouse,Philip Mountbatten,F
Charles Windsor,Child,Elizabeth II,M
Anne Windsor,Child,Elizabeth II,F
Andrew Windsor,Child,Elizabeth II,M
Edward Windsor,Child,Elizabeth II,M
William Windsor,Child,Charles Windsor,M
Henry Windsor,Child,Charles Windsor,M
Diana Spencer,Spouse,Charles Windsor,F
Catherine Middleton,Spouse,William Windsor,F
George AL Windsor,Child,William Windsor,M
Charlotte ED Windsor,Child,William Windsor,F
Louis AC Windsor,Child,William Windsor,M
Meghan Markle,Spouse,Henry Windsor,F
Elizabeth II,Child,George VI,M
George VI,Child,George V,M
George V,Child,Edward VII,M
Edward VIII,Child,Edward VII,M
Edward VII,Child,Victoria,M
Victoria,Child,Edward Duke of Kent and Strathearn,F
Edward Duke of Kent and Strathearn,Child,George III,M
William IV,Child,George III,M
George IV,Child,George III,M
George III,Child,Frederick Prince of Wales,M
Frederick Prince of Wales,Child,George II,M
George II,Child,George I,M
George I,Child,Sophia of Hanover Electress of Brunswick,M
Sophia of Hanover Electress of Brunswick,Child,Elizabeth Electress Palatine,F
Elizabeth Electress Palatine,Child,James VI & I,M
Charles I,Child,James VI & I,M
Charles II,Child,Charles I,M
Mary Princess Royal,Child,Charles II,F
William III & II,Child,Mary Princess Royal,M
James II & VII,Child,Charles I,M
Mary II,Child,James II & VII,F
Anne,Child,James II & VII,F
Mary II,Spouse,William III & II,F
James VI & I,Child,Mary Queen of Scots,F
Mary Queen of Scots,Child,James V of Scotland,F
James V of Scotland,Child,Margaret Tudor,F
Margaret Tudor,Child,Henry VII,F
Henry VIII,Child,Henry VII,M
Mary Tudor,Child,Henry VII,M
Edward VI,Child,Henry VIII,M
Mary I,Child,Henry VIII,F
Elizabeth I,Child,Henry VIII,F
Philip Mountbatten,Child,Alice Mountbatten,M
Alice Mountbatten,Child,Victoria Alberta Hesse,F
Victoria Alberta Hesse,Child,Princess Alice,F
Princess Alice,Child,Victoria,F
Henry VII,Spouse,Elizabeth of York,M
Elizabeth of York,Child,Edward IV,F
Edward V,Child,Edward IV,M
Edward IV,Child,Richard of York,M
Richard III,Child,Richard of York,M
Richard of York,Child,Anne Mortimer,M
Richard of York,Child,Edmund of Langley,M
Anne Mortimer,Child,Roger Mortimer,F
Roger Mortimer,Child,Philippa of Clarence,M
Philippa of Clarence,Child,Lionel of Antwerp,F
Edmund of Langley,Child,Edward III,M
Henry VII,Child,Margaret Beaufort,F
Margaret Beaufort,Child,John Beaufort Duke of Somerset,F
John Beaufort Duke of Somerset,Child,John Beaufort Earl of Somerset,M
John Beaufort Earl of Somerset,Child,John of Gaunt,M
Henry IV,Child,John of Gaunt,M
Henry V,Child,Henry IV,M
Henry VI,Child,Henry V,M
Edward The Black Prince,Child,Edward III,M
Richard II,Child,Edward The Black Prince,M
Edward III,Child,Edward II,M
Edward II,Child,Edward I,M
Edward I,Child,Henry III,M
Henry III,Child,King John,M
King John,Child,Henry II,M
Richard I,Child,Henry II,M
Henry II,Child,Matilda,M
Henry I,Child,William the Conqueror,M
Matilda,Child,Henry I,M
Henry I,Spouse,Matilda of Scotland,M
John of Gaunt,Child,Edward III,M
Lionel of Antwerp,Child,Edward III,M
Matilda of Scotland,Child,Margaret of Scotland,F
Margaret of Scotland,Child,Edward the Exile,F
Edward the Exile,Child,Edmund II,M
Edmund II,Child,Aethelred the Unready,M
Aethelred the Unready,Child,Edgar I,M
Edward the Martyr,Child,Edgar I,M
Emma of Normandy,Spouse,Aethelred the Unready,F
Edward the Confessor,Child,Aethelred the Unready,M
Cnut the Great,Spouse,Emma of Normandy,M
Sweyn Forkbeard,Earliest Ancestor,,M
Cnut the Great,Child,Sweyn Forkbeard,M
Richard I of Normandy,Earliest Ancestor,,M
Emma of Normandy,Child,Richard I of Normandy,F
William the Conqueror,Child,Robert I of Normandy,M
Robert I of Normandy,Child,Richard II of Normandy,M
Richard II of Normandy,Child,Richard I of Normandy,M
Edmund I,Child,Edward the Elder,M
Edgar I,Child,Edmund I,M
Edward the Elder,Child,Alfred the Great,M
Alfred the Great,Child,Æthelwulf,M
Aethelstan,Child,Edward the Elder,M
Eadred,Child,Edward the Elder,M
Eadwig,Child,Edmund I,M
Æthelwulf,Child,Ecgberht,M
Æthelred,Child,Æthelwulf,M
Æthelberht,Child,Æthelwulf,M
Æthelbald,Child,Æthelwulf,M
Ealhmund of Kent,Earliest Ancestor,,M
Ecgberht,Child,Ealhmund of Kent,M
Aethelstan,Child,Edward the Elder,M
Eadred,Child,Edward the Elder,M
Eadwig,Child,Edmund I,M
Mary Hanover,Child,Adolphus Hanover,F
Mary of Teck,Spouse,George V,F
Mary of Teck,Child,Mary Hanover,F
Adolphus Hanover,Child,George III,M
Alexandra of Denmark,Spouse,Edward VII,F
Alexandra of Denmark,Child,Christian IX of Denmark,F
Christian IX of Denmark,Child,Louise Carolina Hesse-Kassel,M
Louise Carolina Hesse-Kassel,Child,Louise Oldenburg,F
Louise Oldenburg,Child,Louise Hanover,F
Charles of Hesse-Kassel,Child,Mary Hanover (1723),M
Louise Oldenburg,Child,Charles of Hesse-Kassel,F
Mary Hanover (1723),Child,George II,F
Louise Hanover,Child,George II,F
Albert Saxe-Coburg,Spouse,Victoria,M
Albert Saxe-Coburg,Child,Ernest of Saxe-Coburg and Gotha,M
Ernest of Saxe-Coburg and Gotha,Child,Francis of Saxe-Coburg-Saalfeld,M
Victoria of Saxe-Coburg-Saalfeld,Child,Francis of Saxe-Coburg-Saalfeld,F
Victoria,Child,Victoria of Saxe-Coburg-Saalfeld,F
Caroline Welf,Spouse,George IV,F
Caroline Welf,Child,Augusta Hanover,F
Augusta Hanover,Child,Frederick Prince of Wales,F
Adelaide of Saxe-Meiningen,Spouse,William IV,F
Adelaide of Saxe-Meiningen,Child,George of Saxe-Meiningen,M
George of Saxe-Meiningen,Child,Anton of Saxe-Meiningen,M
Anton of Saxe-Meiningen,Child,Bernhard of Saxe-Meiningen,M
Bernhard of Saxe-Meiningen,Child,Ernst of Saxe-Gotha,M
George III,Child,Auguste Saxe-Gotha,M
Auguste Saxe-Gotha,Child,Friedrich II of Saxe-Gotha-Altenburg,F
Friedrich II of Saxe-Gotha-Altenburg,Child,Friedrich I of Saxe-Gotha-Altenburg,M
Friedrich I of Saxe-Gotha-Altenburg,Child,Ernst of Saxe-Gotha,M
Auguste Saxe-Gotha,Spouse,Frederick Prince of Wales,F
Charlotte Mecklenburg-Strelitz,Spouse,George III,F
Charlotte Mecklenburg-Strelitz,Child,Elisabeth Saxe-Hildburghausen,F
Elisabeth Saxe-Hildburghausen,Child,Ernst of Saxe-Hildburghausen,F
Ernst of Saxe-Hildburghausen,Child,Ernst Wettin (1655),M
Ernst Wettin (1655),Child,Ernst of Saxe-Gotha,M
Wilhelmina Hohenzollern,Spouse,George II,F
Joachim Friedrich of Brandenburg-Ansbach,Child,Albrecht of Brandenburg-Ansbach,M
Wilhelmina Hohenzollern,Child,Joachim Friedrich of Brandenburg-Ansbach,F
Albrecht of Brandenburg-Ansbach,Child,Joachim of Brandenburg-Ansbach,M
Joachim of Brandenburg-Ansbach,Child,Johann Georg Hohenzollern,M
Sophia Dorothea of Celle,Spouse,George I,M
Sophia Dorothea of Celle,Child,Georg of Saxe-Lauenburg,F
George I,Child,Ernest Elector of Hanover,M
Anna Eleonore Hesse-Darmstadt,Child,Magdalena Hohenzollern,F
Ernest Elector of Hanover,Child,Anna Eleonore Hesse-Darmstadt,M
Georg of Saxe-Lauenburg,Child,Anna Eleonore Hesse-Darmstadt,M
Magdalena Hohenzollern,Child,Johann Georg Hohenzollern,F
Marie Lorraine-Guis,Spouse,James V of Scotland,F
Marie Lorraine-Guis,Child,Antoinette Bourbon,F
Antoinette Bourbon,Child,Francis Bourbon of Vendome,F
Henrietta Bourbon,Spouse,Charles I,F
Henrietta Bourbon,Child,Henry IV of France,F
Henry IV of France,Child,Antoine of Navarre,M
Antoine of Navarre,Child,Charles of Vendome,M
Charles of Vendome,Child,Francis Bourbon of Vendome,M
Francis Bourbon of Vendome,Earliest Ancestor,,M
James IV of Scotland,Spouse,Margaret Tudor,M
James IV of Scotland,Child,Margarathe of Denmark,M
Margarathe of Denmark,Child,Christian of Denmark,F
Christian of Denmark,Earliest Ancestor,,M
Anna of Denmark,Spouse,James VI & I,F
Anna of Denmark,Child,Frederick II of Denmark,F
Frederick II of Denmark,Child,Christian III of Denmark,M
Christian III of Denmark,Child,Frederik I of Denmark and Sweden,M
Frederik I of Denmark and Sweden,Child,Christian of Denmark,M
James V of Scotland,Child,James IV of Scotland,M
James III of Scotland,Child,James II of Scotland,M
James IV of Scotland,Child,James III of Scotland,M
James II of Scotland,Child,James I of Scotland,M
James I of Scotland,Child,Robert III of Scotland,M
Robert III of Scotland,Child,Robert II of Scotland,M
Robert II of Scotland,Child,Marjorie Bruce,M
Marjorie Bruce,Child,Robert I of Scotland,F
Robert I of Scotland,Child,Robert de Brus (1243),M
Robert de Brus (1243),Child,Robert de Brus (-1295),M
Robert de Brus (-1295),Child,Isobel Dunkeld,M
Isobel Dunkeld,Child,David Earl of Huntingdon,F
David Earl of Huntingdon,Child,Henry Dunkeld,M
Henry Dunkeld,Child,David I of Scotland,M
David I of Scotland,Child,Malcolm III of Scotland,M
Malcolm III of Scotland,Child,Duncan I of Scotland,M
Duncan I of Scotland,Child,Bethóc,M
Bethóc,Child,Malcolm II of Scotland,M
Malcolm II of Scotland,Child,Kenneth II of Alba,M
Kenneth II of Alba,Child,Malcolm I of Alba,M
Malcolm I of Alba,Child,Donald II of Alba,M
Donald II of Alba,Child,Costantin I of the Picts,M
Costantin I of the Picts,Child,Kenneth I of the Picts,M
Kenneth I of the Picts,Child,Alpín mac Echdach ,M
Alpín mac Echdach ,Earliest Ancestor,,M
Margaret of Scotland,Spouse,Malcolm III of Scotland,F
King Edgar of Scotland,Child,Malcolm III of Scotland,M
Alexander I of Scotland,Child,Malcolm III of Scotland,M
Sibylla of Normandy,Child,Henry I,F
Sibylla of Normandy,Spouse,Alexander I of Scotland,F
David I of Scotland,Child,Malcolm III of Scotland,M
Henry Earl of Huntingdon,Child,David I of Scotland,M
William I of Scotland,Child,David I of Scotland,M
Malcolm IV of Scotland,Child,David I of Scotland,M
Constance,Child,Henry I,F
Ermengarde de Beaumont,Child,Constance,F
Ermengarde de Beaumont,Spouse,William I of Scotland,F
Alexander II of Scotland,Child,William I of Scotland,M
Joan of England,Child,King John,F
Joan of England,Spouse,Alexander II of Scotland,F
Alexander III of Scotland,Child,Alexander II of Scotland,M
Margaret of England,Child,Henry III,F
Margaret of England,Spouse,Alexander III of Scotland,F
Edward I,Child,Eleanor of Provence,M
Eleanor of Provence,Child,Raymond Count of Provence,F
Raymond Count of Provence,Earliest Ancestor,,M
Edward III,Child,Isabelle Capet (1292),M
Isabelle Capet (1292),Child,Philip The Fair of France,F
Philip The Fair of France,Child,Philip III of France,M
Philip III of France,Child,Marguerite of Provence,M
Marguerite of Provence,Child,Raymond Count of Provence,F
Louis IX of France,Child,Blanca Alphonsa of Castile,M
Louis IX of France,Child,Philip Augustus of France,M
Philip III of France,Child,Louis IX of France,M
Blanca Alphonsa of Castile,Child,Eleanor Angevian (1162),F
Eleanor Angevian (1162),Child,Henry II,F
Philip Augustus of France,Child,Louis VII of France,M
Louis VII of France,Child,Louis VI of France,M
Louis VI of France,Child,Philip I of France,M
Philip I of France,Child,Henri I of France,M
Henri I of France,Child,Robert The Pious of France,M
Robert The Pious of France,Child,Hugh Capet,M
Hugh Capet,Child,Hugh Capet (Duke of France),M
Hugh Capet (Duke of France),Child,Robert I of France,M
Robert I of France,Earliest Ancestor,,M
Beatrice of Vermandois,Spouse,Robert I of France,F
Beatrice of Vermandois,Child,Herbert I of Vermandois,F
Herbert I of Vermandois,Child,Pepin of Vermandois,M
Pepin of Vermandois,Child,Bernard of Italy,M
Bernard of Italy,Child,Pepin of Italy,M
Pepin of Italy,Child,Charlemagne,M
Charlemagne,Earliest Ancestor,,M
